%YAML 1.1
%TAG !u! tag:unity3d.com,2011:
--- !u!1045 &1
EditorBuildSettings:
  m_ObjectHideFlags: 0
  serializedVersion: 2
  m_Scenes:
  - enabled: 1
    path: Assets/Scenes/MainMenu.unity
    guid: 91dc5fcc8cb42694c8108eb33ff7cc6a
  - enabled: 1
    path: Assets/Scenes/Gameplay.unity
    guid: 56ce6ddaf20ff574aa3163ee4100a460
  m_configObjects: {}
